{
  "categories": [
    {
      "category_id": "11",
      "listing_id": "mau_nam",
      "name": "Mẫu Nam",
      "nav_bar": [
        {
          "name": "Jackets",
          "filters": [
            {
              "code": "category_id",
              "data": {
                "eq": "14"
              }
            },
            {
              "code": "material",
              "data": {
                "eq": "47"
              }
            }
          ],
          "is_default": true,
          "sort_order": 1
        },
        {
          "name": "Hoodies & Sweatshirts",
          "filters": [
            {
              "code": "category_id",
              "data": {
                "eq": "15"
              }
            },
            {
              "code": "material",
              "data": {
                "eq": "47"
              }
            }
          ],
          "is_default": false,
          "sort_order": 1
        }
      ]
    },
    {
      "category_id": "20",
      "name": "Mẫu Nữ",
      "listing_id": "mau_nu",
      "nav_bar": [
        {
          "name": "Sieu HOT",
          "filters": [
            {
              "code": "category_id",
              "data": {
                "eq": "25"
              }
            }
          ],
          "is_default": true,
          "sort_order": 1
        },
        {
          "name": "Bras & Tanks",
          "filters": [
            {
              "code": "category_id",
              "data": {
                "eq": "26"
              }
            },
            {
              "code": "eco_collection",
              "data": {
                "eq": "1"
              }
            }
          ],
          "is_default": false,
          "sort_order": 1
        }
      ]
    }
  ]
}
