{
  "selections": [
    {
      "type": "popup",
      "name": "Mẫu Nam",
      "action": {
        "type": "link/catalog_category_view",
        "data": "url/category_id"
      },
      "selections": [
        {
          "name": "Tops",
          "action": {
            "type": "catalog_category_view",
            "data": [
              {
                "code": "category_id",
                "data": {
                  "eq": "12"
                }
              }
            ]
          },
          "selections": [
            {
              "name": "Jackets",
              "action": {
                "type": "catalog_category_view",
                "data": [
                  {
                    "code": "category_id",
                    "data": {
                      "eq": "14"
                    }
                  }
                ]
              }
            },
            {
              "name": "Hoodies",
              "action": {
                "type": "catalog_category_view",
                "data": [
                  {
                    "code": "category_id",
                    "data": {
                      "eq": "15"
                    }
                  }
                ]
              }
            },
            {
              "name": "Tees",
              "action": {
                "type": "catalog_category_view",
                "data": [
                  {
                    "code": "category_id",
                    "data": {
                      "eq": "16"
                    }
                  }
                ]
              }
            },
            {
              "name": "Link ra ngoài",
              "action": {
                "type": "link",
                "data": "url"
              }
            }
          ]
        },
        {
          "name": "Bottoms",
          "action": {
            "type": "catalog_category_view",
            "data": [
              {
                "code": "category_id",
                "data": {
                  "eq": "13"
                }
              }
            ]
          },
          "selections": [
            {
              "name": "Pant",
              "action": {
                "type": "catalog_category_view",
                "data": [
                  {
                    "code": "category_id",
                    "data": {
                      "eq": "18"
                    }
                  }
                ]
              }
            },
            {
              "name": "Short",
              "action": {
                "type": "catalog_category_view",
                "data": [
                  {
                    "code": "category_id",
                    "data": {
                      "eq": "19"
                    }
                  }
                ]
              }
            }
          ]
        },
        {
          "name": "Mua theo size",
          "action": {
            "type": false
          },
          "selections": [
            {
              "name": "Chọn size",
              "action": {
                "type": "attribute_filter",
                "data": {
                  "code": "size",
                  "filters": [
                    {
                      "code": "category_id",
                      "data": {
                        "eq": "18"
                      }
                    }
                  ]
                }
              }
            }
          ]
        },
        {
          "name": "Mua theo màu",
          "action": {
            "type": false
          },
          "selections": [
            {
              "name": "Chọn màu",
              "action": {
                "type": "attribute_filter",
                "data": {
                  "code": "color",
                  "filters": [
                    {
                      "code": "category_id",
                      "data": {
                        "eq": "18"
                      }
                    }
                  ]
                }
              }
            }
          ]
        }
      ]
    },
    {
      "type": "popup",
      "name": "Mẫu Nữ",
      "action": {
        "type": "link/catalog_category_view",
        "data": "url/category_id"
      },
      "selections": [
        {
          "name": "Tops",
          "action": {
            "type": "catalog_category_view",
            "data": [
              {
                "code": "category_id",
                "data": {
                  "eq": "12"
                }
              }
            ]
          },
          "selections": [
            {
              "name": "Jackets",
              "action": {
                "type": "catalog_category_view",
                "data": [
                  {
                    "code": "category_id",
                    "data": {
                      "eq": "14"
                    }
                  }
                ]
              }
            },
            {
              "name": "Hoodies",
              "action": {
                "type": "catalog_category_view",
                "data": [
                  {
                    "code": "category_id",
                    "data": {
                      "eq": "15"
                    }
                  }
                ]
              }
            },
            {
              "name": "Tees",
              "action": {
                "type": "catalog_category_view",
                "data": [
                  {
                    "code": "category_id",
                    "data": {
                      "eq": "16"
                    }
                  }
                ]
              }
            },
            {
              "name": "Link ra ngoài",
              "action": {
                "type": "link",
                "data": "url"
              }
            }
          ]
        },
        {
          "name": "Bottoms",
          "action": {
            "type": "catalog_category_view",
            "data": [
              {
                "code": "category_id",
                "data": {
                  "eq": "13"
                }
              }
            ]
          },
          "selections": [
            {
              "name": "Pant",
              "action": {
                "type": "catalog_category_view",
                "data": [
                  {
                    "code": "category_id",
                    "data": {
                      "eq": "18"
                    }
                  }
                ]
              }
            },
            {
              "name": "Short",
              "action": {
                "type": "catalog_category_view",
                "data": [
                  {
                    "code": "category_id",
                    "data": {
                      "eq": "19"
                    }
                  }
                ]
              }
            }
          ]
        },
        {
          "name": "Mua theo size",
          "action": {
            "type": false
          },
          "selections": [
            {
              "name": "Chọn size",
              "action": {
                "type": "attribute_filter",
                "data": {
                  "code": "size",
                  "filters": [
                    {
                      "code": "category_id",
                      "data": {
                        "eq": "18"
                      }
                    }
                  ]
                }
              }
            }
          ]
        },
        {
          "name": "Mua theo màu",
          "action": {
            "type": false
          },
          "selections": [
            {
              "name": "Chọn màu",
              "action": {
                "type": "attribute_filter",
                "data": {
                  "code": "color",
                  "filters": [
                    {
                      "code": "category_id",
                      "data": {
                        "eq": "18"
                      }
                    }
                  ]
                }
              }
            }
          ]
        }
      ]
    },
    {
      "type": "popup",
      "name": "Trẻ em",
      "action": {
        "type": "link/catalog_category_view",
        "data": "url/category_id"
      },
      "selections": [
        {
          "name": "Tops",
          "action": {
            "type": "catalog_category_view",
            "data": [
              {
                "code": "category_id",
                "data": {
                  "eq": "12"
                }
              }
            ]
          },
          "selections": [
            {
              "name": "Jackets",
              "action": {
                "type": "catalog_category_view",
                "data": [
                  {
                    "code": "category_id",
                    "data": {
                      "eq": "14"
                    }
                  }
                ]
              }
            },
            {
              "name": "Hoodies",
              "action": {
                "type": "catalog_category_view",
                "data": [
                  {
                    "code": "category_id",
                    "data": {
                      "eq": "15"
                    }
                  }
                ]
              }
            },
            {
              "name": "Tees",
              "action": {
                "type": "catalog_category_view",
                "data": [
                  {
                    "code": "category_id",
                    "data": {
                      "eq": "16"
                    }
                  }
                ]
              }
            },
            {
              "name": "Link ra ngoài",
              "action": {
                "type": "link",
                "data": "url"
              }
            }
          ]
        },
        {
          "name": "Bottoms",
          "action": {
            "type": "catalog_category_view",
            "data": [
              {
                "code": "category_id",
                "data": {
                  "eq": "13"
                }
              }
            ]
          },
          "selections": [
            {
              "name": "Pant",
              "action": {
                "type": "catalog_category_view",
                "data": [
                  {
                    "code": "category_id",
                    "data": {
                      "eq": "18"
                    }
                  }
                ]
              }
            },
            {
              "name": "Short",
              "action": {
                "type": "catalog_category_view",
                "data": [
                  {
                    "code": "category_id",
                    "data": {
                      "eq": "19"
                    }
                  }
                ]
              }
            }
          ]
        },
        {
          "name": "Mua theo size",
          "action": {
            "type": false
          },
          "selections": [
            {
              "name": "Chọn size",
              "action": {
                "type": "attribute_filter",
                "data": {
                  "code": "size",
                  "filters": [
                    {
                      "code": "category_id",
                      "data": {
                        "eq": "18"
                      }
                    }
                  ]
                }
              }
            }
          ]
        },
        {
          "name": "Mua theo màu",
          "action": {
            "type": false
          },
          "selections": [
            {
              "name": "Chọn màu",
              "action": {
                "type": "attribute_filter",
                "data": {
                  "code": "color",
                  "filters": [
                    {
                      "code": "category_id",
                      "data": {
                        "eq": "18"
                      }
                    }
                  ]
                }
              }
            }
          ]
        }
      ]
    },
    {
      "type": "popup",
      "name": "Phụ kiện",
      "action": {
        "type": "link/catalog_category_view",
        "data": "url/category_id"
      },
      "selections": [
        {
          "name": "Tops",
          "action": {
            "type": "catalog_category_view",
            "data": [
              {
                "code": "category_id",
                "data": {
                  "eq": "12"
                }
              }
            ]
          },
          "selections": [
            {
              "name": "Jackets",
              "action": {
                "type": "catalog_category_view",
                "data": [
                  {
                    "code": "category_id",
                    "data": {
                      "eq": "14"
                    }
                  }
                ]
              }
            },
            {
              "name": "Hoodies",
              "action": {
                "type": "catalog_category_view",
                "data": [
                  {
                    "code": "category_id",
                    "data": {
                      "eq": "15"
                    }
                  }
                ]
              }
            },
            {
              "name": "Tees",
              "action": {
                "type": "catalog_category_view",
                "data": [
                  {
                    "code": "category_id",
                    "data": {
                      "eq": "16"
                    }
                  }
                ]
              }
            },
            {
              "name": "Link ra ngoài",
              "action": {
                "type": "link",
                "data": "url"
              }
            }
          ]
        },
        {
          "name": "Bottoms",
          "action": {
            "type": "catalog_category_view",
            "data": [
              {
                "code": "category_id",
                "data": {
                  "eq": "13"
                }
              }
            ]
          },
          "selections": [
            {
              "name": "Pant",
              "action": {
                "type": "catalog_category_view",
                "data": [
                  {
                    "code": "category_id",
                    "data": {
                      "eq": "18"
                    }
                  }
                ]
              }
            },
            {
              "name": "Short",
              "action": {
                "type": "catalog_category_view",
                "data": [
                  {
                    "code": "category_id",
                    "data": {
                      "eq": "19"
                    }
                  }
                ]
              }
            }
          ]
        },
        {
          "name": "Mua theo size",
          "action": {
            "type": false
          },
          "selections": [
            {
              "name": "Chọn size",
              "action": {
                "type": "attribute_filter",
                "data": {
                  "code": "size",
                  "filters": [
                    {
                      "code": "category_id",
                      "data": {
                        "eq": "18"
                      }
                    }
                  ]
                }
              }
            }
          ]
        },
        {
          "name": "Mua theo màu",
          "action": {
            "type": false
          },
          "selections": [
            {
              "name": "Chọn màu",
              "action": {
                "type": "attribute_filter",
                "data": {
                  "code": "color",
                  "filters": [
                    {
                      "code": "category_id",
                      "data": {
                        "eq": "18"
                      }
                    }
                  ]
                }
              }
            }
          ]
        }
      ]
    },
    {
      "name": "Khuyến Mãi",
      "action": {
        "type": "link",
        "data": "url"
      }
    },
    {
      "name": "Liên Hệ",
      "action": {
        "type": "link",
        "data": "url"
      }
    }
  ]
}
